
***********************************************************************
************************* dmconnector Shop *****************************
***********************************************************************
04.11.2014 - 22:10 Uhr

Uebergebene Daten:
  <GetDaten>
  </GetDaten>
  <PostDaten>
    <action>check_orders</action>
    <user>dmc</user>
    <password>dmc1306</password>
    <order_status>1</order_status>
  <PostDaten>

 ********************************** 
ExportModus :.
Get Soap Connection to http://petzeba-shop.ch/magentoCH/index.php/api/?wsdlapi authentification, ->  get session token = 1d207ee9672e99dc37ebbf6ac65acc9b 
Action= *check_orders* mit Session= 1d207ee9672e99dc37ebbf6ac65acc9b
checkOrders aufrufen mit session=1d207ee9672e99dc37ebbf6ac65acc9b.
*** checkOrders ***  mit Status= pending/pending seit 2012-04-27 00:00:00 mit session 1d207ee9672e99dc37ebbf6ac65acc9b ... dmc_db_connect - Verbindung zu Datenbank Version 5.5.37-log
dmc_sql_select_value-SQL= SELECT count(*) AS wert FROM sales_flat_order WHERE status='pending' AND created_at > '2012-04-27 00:00:00'  ->  .
Anzahl=0 
Session 1d207ee9672e99dc37ebbf6ac65acc9b closed.


***********************************************************************
************************* dmconnector Shop *****************************
***********************************************************************
04.11.2014 - 22:10 Uhr

Uebergebene Daten:
  <GetDaten>
  </GetDaten>
  <PostDaten>
    <action>check_orders</action>
    <user>dmc</user>
    <password>dmc1306</password>
    <order_status>1</order_status>
  <PostDaten>

 ********************************** 
ExportModus :.
Get Soap Connection to http://petzeba-shop.ch/magentoCH/index.php/api/?wsdlapi authentification, ->  get session token = e9cfe4f7e0514151126deb7915607e79 
Action= *check_orders* mit Session= e9cfe4f7e0514151126deb7915607e79
checkOrders aufrufen mit session=e9cfe4f7e0514151126deb7915607e79.
*** checkOrders ***  mit Status= pending/pending seit 2012-04-27 00:00:00 mit session e9cfe4f7e0514151126deb7915607e79 ... dmc_db_connect - Verbindung zu Datenbank Version 5.5.37-log
dmc_sql_select_value-SQL= SELECT count(*) AS wert FROM sales_flat_order WHERE status='pending' AND created_at > '2012-04-27 00:00:00'  ->  .
Anzahl=0 

***********************************************************************
************************* dmconnector Shop *****************************
***********************************************************************
04.11.2014 - 22:12 Uhr

Uebergebene Daten:
  <GetDaten>
  </GetDaten>
  <PostDaten>
    <action>check_orders</action>
    <user>dmc</user>
    <password>dmc1306</password>
    <order_status>1</order_status>
  <PostDaten>

 ********************************** 
ExportModus :.
Get Soap Connection to http://petzeba-shop.ch/magentoCH/index.php/api/?wsdlapi authentification, ->  get session token = e69b2f6a3a1ed1c49b5808fb98690738 
Action= *check_orders* mit Session= e69b2f6a3a1ed1c49b5808fb98690738
checkOrders aufrufen mit session=e69b2f6a3a1ed1c49b5808fb98690738.
*** checkOrders ***  mit Status= pending/pending seit 2012-04-27 00:00:00 mit session e69b2f6a3a1ed1c49b5808fb98690738 ... dmc_db_connect - Verbindung zu Datenbank petzeba_magentoCH mit Version 5.5.37-log
dmc_sql_select_value-SQL= SELECT count(*) AS wert FROM sales_flat_order WHERE status='pending' AND created_at > '2012-04-27 00:00:00'  ->  .
Anzahl=0 
