<?xml version="1.0" encoding="iso-8859-1"?>
<!-- Generator: Adobe Illustrator 16.0.0, SVG Export Plug-In . SVG Version: 6.00 Build 0)  -->
<!DOCTYPE svg PUBLIC "-//W3C//DTD SVG 1.1//EN" "http://www.w3.org/Graphics/SVG/1.1/DTD/svg11.dtd">
<svg version="1.1" id="Capa_1" xmlns="http://www.w3.org/2000/svg" xmlns:xlink="http://www.w3.org/1999/xlink" x="0px" y="0px"
	 width="571.307px" height="571.307px" viewBox="0 0 571.307 571.307" style="enable-background:new 0 0 571.307 571.307;"
	 xml:space="preserve">
<g>
	<path d="M564.209,302.088c-14.699-29.401-49-38.601-74.399-23.001c-0.9-7.7-2.4-15.3-4-22.6c0-1.2-0.3-2.8-1.2-4.3
		c-28.7-107.7-146.6-169.2-255.201-138c-90,25.7-204.1,110.2-207.8,212.401c-0.6,1.8-0.6,3.699,0,5.199c0,7.7,0.6,15.601,1.8,23.301
		c-21.7,25.699-34.3,61.5-10.7,90.3c21.4,26,71.6,20.2,99.8,16.8c54.8-6.1,103.1-16.5,159.1-11.9c56.6,4.9,130.1,12.5,170.1-37
		c26.301-32.699,0.9-67-30-81.699c-8.3-36.4-38.6-65.501-72.199-82.601c48.3-8.9,100.699,0.6,126.699,46.201
		c-13.199,9.5-14.699,34.3-8.6,50.2c10.7,29.1,40.4,52,72.2,42.2C566.61,375.787,581.31,335.688,564.209,302.088z M421.91,408.588
		c-31.5,39.199-107.7,26-150.9,22c-36.1-3.101-71.6-5.2-107.1,2.399c-52.9,11.3-199.2,29.7-127-70.399c0-0.301,0-0.301,0.3-0.601
		c40.1-28.2,141.4-1.5,179,3.4c23.6,3.1,47.7,7.3,71.301,5.5c16.5-1.5,33.699-9.8,49-15c8.6-3.101,17.1-5.5,25.699-7.7
		C387.01,341.588,467.51,352.287,421.91,408.588z M521.31,368.487c-20.5,6.4-37.3-12.2-45.3-28.8c-7-14.4-5.801-27.2,5.199-35.5
		c2.4,0.6,5.2,0.3,7.601-2.1c21.1-18.701,44.7-15.301,58.399,9.8C560.209,335.688,545.51,360.787,521.31,368.487z"/>
</g>
<g>
</g>
<g>
</g>
<g>
</g>
<g>
</g>
<g>
</g>
<g>
</g>
<g>
</g>
<g>
</g>
<g>
</g>
<g>
</g>
<g>
</g>
<g>
</g>
<g>
</g>
<g>
</g>
<g>
</g>
</svg>
