email,_website,_store,confirmation,created_at,created_in,disable_auto_group_change,dob,ebizmarts_reviews_cntr_total,ebizmarts_reviews_coupon_total,firstname,gender,group_id,lastname,middlename,password_hash,prefix,rp_token,rp_token_created_at,store_id,suffix,taxvat,website_id,password,_address_city,_address_company,_address_country_id,_address_fax,_address_firstname,_address_lastname,_address_middlename,_address_postcode,_address_prefix,_address_region,_address_street,_address_suffix,_address_telephone,_address_vat_id,_address_default_billing_,_address_default_shipping_
elisabeth_akroud@stahls.de,base,de,,2013-10-28 11:11:38,Default Store View,0,,,,Elli,,1,Akroud,,84123a909680af59ac206cc17ec2ea3d:9y,Frau,,,1,,,1,,Dillingen,,DE,,Elli,Akroud,,66763,Frau,Saarland,Dieselstr. 62,,06831-973353,,1,1
frankbruecker@aol.com,base,de,,2013-12-02 15:49:24,Default Store View,0,,,,Frank,,1,Bruecker,,c555b2ce3823c876462fba656903aea9:8W,Herr,,,1,,,1,,Wadern,,DE,,Frank,Bruecker,,66687,Herr,Saarland,Sitzerather Str.72a,,1724534089,,1,1
hirschfelder@gessnerlaw.de,base,de,,2013-12-11 14:58:23,Default Store View,0,,,,Marcus,,1,Hirschfelder,,2e18947915e4cc2d24e683384e6d6944:vQ,Herr,,,1,,,1,,,,,,,,,,,,,,,,,
MartinJamesdesign@gmail.com,base,de,,2014-01-09 12:02:34,Default Store View,0,,,,Martin,,1,James,,a25be7461980f4fa4c9b6db0002f664f:cO,Herr,,,1,,,1,,,,,,,,,,,,,,,,,
ingrid.schorr@arcor.de,base,de,,2014-01-30 21:36:22,Default Store View,0,,,,Ingrid,,1,Schorr,,317efcefaa4ae1b03aff4fea7f0c8e22:ZM,Frau,,,1,,,1,,Kornwestheim,,DE,,Ingrid,Schorr,,70806,Frau,Baden-Württemberg,Kurzestr. 6,,15209251642,,1,
andreas.schwenk@outlook.com,base,de,,2014-02-26 11:35:39,Default Store View,0,,,,Andreas,,1,Schwenk,,62bc6ad73bf4d0b5b5aa649f2cf2b99c:ulHnUVKDPDIhh2bEl1NZRR9h2eWGEriJ,Frau,,,1,,,1,,,,,,,,,,,,,,,,,
as@moas.de,base,de,,2014-03-06 15:20:47,Default Store View,0,,,,Andreas,,1,Schwenk,,d0c7d7a13a4ad0ee188e38a948bfe987:gs,Herr,,,1,,,1,,Berlin,,DE,,Andreas,Schwenk,,12165,Herr,Berlin,Schützenstraße 8,,306652468,,1,1
frank_bruecker@stahls.de,base,de,,2014-03-10 12:02:12,Default Store View,0,,,,Frank,,1,Brücker,,72f1eae121410c876958e5e21bad3ab4:4U,Herr,,,1,,,1,,,,,,,,,,,,,,,,,
geopardalis@hotmail.com,base,de,,2014-03-21 08:54:14,Default Store View,0,,,,Marina,,1,Friede,,cd51c648fbd763322d7ac5f306911870:ne,Frau,,,1,,,1,,Bolsterlang,,DE,,Marina,Friede,,87538,Frau,Bayern,Goldbachweg 24,,83263669,,1,
info@belu4you.de,base,de,,2014-03-21 13:42:08,Default Store View,0,,,,Melanie,,1,Bergmann,,07f07e33aa6c8ad26d763b5ed0cb31ad:ap,Frau,,,1,,,1,,,,,,,,,,,,,,,,,
herbertneum@t-online.de,base,de,,2014-03-23 15:58:31,Default Store View,0,,,,Angelika,,1,Neumann,,f02bd5d5776a1e523f26f2eb45f28fa0:7c,Frau,,,1,,,1,,,,,,,,,,,,,,,,,
kattrienchen@email.de,base,de,,2014-03-23 19:21:39,Default Store View,0,,,,Katja,,1,Mannigel,,5b327feb76b858572b53952f82cba4b5:lh,Frau,,,1,,,1,,Recklinghasuen,Kattrienchen Kunterbunt,DE,,Katja,Mannigel,,45657,Frau,Nordrhein-Westfalen,Westerholter Weg 10,,15781910195,,1,1
pp134679@googlemail.com,base,de,,2014-03-24 15:03:44,Default Store View,0,,,,Petra,,1,Prinz,,5b7873fe8c0a1ab053073d7f1be90619:uJ,Frau,,,1,,,1,,Ense,,DE,,Petra,Prinz,,59469,Frau,Nordrhein-Westfalen,Seinersweg 42,,15773452644,,1,1
mapakimido@online.de,base,de,,2014-03-24 20:46:47,Default Store View,0,,,,Marius,,1,Goldbach,,c771bd23eefc42ae0eea42140b6cfa57:lk,Herr,,,1,,,1,,Korbach,,DE,,Marius,Goldbach,,34497,Herr,Hessen,Hermann-Hesse-Str. 8,,5631504371,,1,1
carsten.karina.oeding@googlemail.com,base,de,,2014-03-25 12:26:19,Default Store View,0,,,,Karina,,1,Brandherm- Oeding,,7b4f6d5754c085082b021b7b0909b179:qs,Frau,,,1,,,1,,Wadersloh,,DE,,Karina,Brandherm- Oeding,,59329,Frau,Nordrhein-Westfalen,Göttinger Str. 43,,02945/963140,,1,1
jennifer.liss@rub.de,base,de,,2014-03-25 15:59:15,Default Store View,0,,,,Jennifer,,1,Becker,,6c193672945811f426fcfd5adab47269:1z,Frau,,,1,,,1,,,,,,,,,,,,,,,,,
lena_hill02@yahoo.de,base,de,,2014-03-25 16:36:04,Default Store View,0,,,,Lena,,1,Hillringhaus,,223343ed17280434504df649f41a693a:TO,Frau,,,1,,,1,,,,,,,,,,,,,,,,,
azmanis@arcor.de,base,de,,2014-03-26 10:30:15,Default Store View,0,,,,Sabine,,1,Azmani,,000785a1b3c845a88ff262f0e5627661:cQ,Frau,,,1,,,1,,Sonsbeck,,DE,,Sabine,Azmani,,47665,Frau,Nordrhein-Westfalen,Copray 14,,2836779335,,1,
kreativeule@freenet.de,base,de,,2014-03-26 19:34:40,Default Store View,0,,,,Daiana,,1,Kersting,,711dd92eeb2584d7a68849924c6cbc02:xp,Frau,,,1,,,1,,,,,,,,,,,,,,,,,
damaris_willemsen@hotmail.com,base,de,,2014-03-26 21:52:40,Default Store View,0,,,,Damaris,,1,Willemsen,,5973bb22256f9e5859e6b3be957c92f4:zI,Frau,,,1,,,1,,Winterswijk,,DE,,Damaris,Willemsen,,7101TM,Frau,Nordrhein-Westfalen,Olmenstraat 40,,614335718,,1,1
tasi.maus@web.de,base,de,,2014-03-29 23:29:03,Default Store View,0,,,,Anastasia,,1,Schonert,,a3df1fc239a6f43f47c9142dd054d042:Dk,Frau,,,1,,,1,,Ebersbach-Neugersdorf,,DE,,Anastasia,Schonert,,2730,Frau,Sachsen,Hempelstraße 35,,01522/3659009,,1,
Sunshinelive99@web.de,base,de,,2014-03-30 16:14:16,Default Store View,0,,,,Timo,,1,Schwab,,2429dced7e093ede1d5b281509316a55:d6,Frau,,,1,,,1,,,,,,,,,,,,,,,,,
baerbel-kr@gmx.de,base,de,,2014-03-31 16:36:50,Default Store View,0,,,,Bärbel,,1,Kreutzberg,,1666470487acee0471d58262db31b06c:CS,Frau,,,1,,,1,,Alfter,,DE,,Bärbel,Kreutzberg,,53347,Frau,Nordrhein-Westfalen,Im Benden 8,,02222/62721,,1,1
Sabine400@AOL.com,base,de,,2014-03-31 17:40:28,Default Store View,0,,,,Sabine,,1,Bayer-Kothmann,,6c898da574512cb97ff969c7ac9aa0a8:uQ,Frau,,,1,,,1,,Mülheim ,,DE,,Sabine,Bayer-Kothmann,,45468,Frau,Nordrhein-Westfalen,Dohne 67,,15155756728,,1,1
leamaus04@web.de,base,de,,2014-03-31 20:59:31,Default Store View,0,,,,Stefanie,,1,Cichon,,5476c509d75c43f0f9f8e116278facdf:du,Frau,,,1,,,1,,Sendenhorst,,DE,,Stefanie,Cichon,,48324,Frau,Nordrhein-Westfalen,Lambertiplatz 10,,1701628189,,1,
Verenaschwesig@aol.com,base,de,,2014-04-03 08:17:34,Default Store View,0,,,,Verena,,1,Schwesig,,91d11b7635ea5bc2811df6a13637a683:mh,Frau,,,1,,,1,,Mülheim an der Ruhr,,DE,,Verena,Schwesig,,45481,Frau,Nordrhein-Westfalen,Am Biestenkamp 19,,1785645605,,1,1
jstapelmann@gmx.de,base,de,,2014-04-06 19:34:46,Default Store View,0,,,,Janine,,1,Stapelmann,,97f99627aceb8e82434817ee2b7803f9:uP,Frau,,,1,,,1,,Xanten,,DE,,Janine,Stapelmann,,46509,Frau,Nordrhein-Westfalen,Gindericher Str. 33,,02801-9879817,,1,
annchristin.gertz@gmail.com,base,de,,2014-04-06 22:03:27,Default Store View,0,,,,Ann-Christin,,1,Gertz,,39bd774296a25c12672cba39b4994003:Rt,Frau,,,1,,,1,,Hamburg,purple Hamburg,DE,,Ann-Christin,Gertz,,22049,Frau,Hamburg,Forbacher Str. 8,,17661343352,,1,
kmdesign@live.de,base,de,,2014-04-07 08:38:00,Default Store View,0,,,,Verena,,1,Janßen,,8a1e4f2d2af7f573fbaff334929f0fca:uB,Frau,,,1,,,1,,Moers,,DE,,Verena,Janßen,,47445,Frau,Nordrhein-Westfalen,Schillerstraße 55,,02841 8821673,,1,1
rennylein@yahoo.de,base,de,,2014-04-08 15:32:48,Default Store View,0,,,,Renate,,1,Befaida-Liss,,15f766c106f3fde93084357d01b02b09:u8,Frau,,,1,,,1,,Dortmund,,DE,,Renate,Befaida-Liss,,44263,Frau,Nordrhein-Westfalen,Cimbernstr. 28,,2319931648,,1,
olaf.nanninga@ewetel.net,base,de,,2014-04-08 21:54:57,Default Store View,0,,,,Tanja,,1,Nanninga,,320821ee7f2cbfe9ff27203c8a569e55:VR,Frau,,,1,,,1,,Krummhörn,,DE,,Tanja,Nanninga,,26736,Frau,Niedersachsen,Jupiter str 7a 26736 Krummhörn,,04923 910144,,1,1
jennifer.roskam@googlemail.com,base,de,,2014-04-12 08:11:03,Default Store View,0,,,,jennifer,,1,roskam,,6dd673b5bb50a8df92011582bd6b623b:Zx,Frau,,,1,,,1,,krummhörn,,DE,,jennifer,roskam,,26736,Frau,Niedersachsen,waterhörn 21,,4923911177,,1,
inke.terlinden@gmx.de,base,de,,2014-04-13 12:16:00,Default Store View,0,,,,Inke,,1,Terlinden,,08e248db461a53c2c19717a284e7839c:uO,Frau,,,1,,,1,,Groß-Zimmern,,DE,,Inke,Terlinden,,64846,Frau,Hessen,Beethovenstr. 23,,6071617136,,1,1
steffikuhn78@gmail.com,base,de,,2014-04-14 19:27:44,Default Store View,0,,,,Stefanie,,1,Kuhn,,f00d68780ba868dcb44f4a4fc563b0a2:SX,Frau,,,1,,,1,,,,,,,,,,,,,,,,,
erdbeergruenkruemelkexs@gmx.de,base,de,,2014-04-15 16:19:43,Default Store View,0,,,,Melanie,,1,mindrup,,64de0b5acdec0bf8625ca768982b73a4:b5,Frau,,,1,,,1,,Moormerland,,DE,,Melanie,mindrup,,26802,Frau,Niedersachsen,Norderstraße 33,,04954-990567,,1,1
Marythies@web.de,base,de,,2014-04-16 06:07:44,Default Store View,0,,,,Marion,,1,Thies,,5a068f9d55c46e5e5fc8c2a967bc90fd:JR,Frau,,,1,,,1,,Bettenfeld,,DE,,Marion,Thies,,54533,Frau,Rheinland-Pfalz,Im Wiesengrund 18,,657292986,,1,
utezimmermann@freenet.de,base,de,,2014-04-19 02:20:13,Default Store View,0,,,,Ute,,1,Zimmermann,,149119b8a5ecf251cfcf6dc758a9766d:I0,Frau,,,1,,,1,,,,,,,,,,,,,,,,,
Isabelle@big-world.de,base,de,,2014-04-20 11:17:11,Default Store View,0,,,,Isabelle,,1,Groß,,8db249cac3fe3a6c8b553b9cf68695e2:1h,Frau,,,1,,,1,,Weinstadt,,DE,,Isabelle,Groß,,71384,Frau,Baden-Württemberg,Kornblumenweg 7,,172284588,,1,
Liz88@live.de,base,de,,2014-04-23 20:33:27,Default Store View,0,,,,Lisa,,1,Elsbecker ,,4f7f4c0107e99016f2ae42c71fa2e5a3:mK,Frau,,,1,,,1,,Münster,,DE,,Lisa,Elsbecker ,,48165,Frau,Nordrhein-Westfalen,Bodelschwinghstr 31b,,25019779602,,1,
paladini.t@web.de,base,de,,2014-04-24 12:28:31,Default Store View,0,,,,Tanja,,1,Paladini,,83b787af7dc2fb89a73ac022c8d5ad84:yN,Frau,,,1,,,1,,Höchstadt,,DE,,Tanja,Paladini,,91315,Frau,Bayern,Ailersbach 19,,91939335,,1,
lucky9679@web.de,base,de,,2014-04-25 17:41:07,Default Store View,0,,,,Verena,,1,Schlömer,,21436a28c4fe2afaae87de769572fa6e:Hf,Frau,,,1,,,1,,Düren,,DE,,Verena,Schlömer,,52355,Frau,Nordrhein-Westfalen,In der Mühlenau 85,,02421/4987723,,1,
ursula.prill@gmx.de,base,de,,2014-04-27 17:10:49,Default Store View,0,,,,Ursula,,1,Prill,,62a6fffad186c7e0b7d6242307e1eb97:SL,Frau,,,1,,,1,,,,,,,,,,,,,,,,,
liariemann@web.de,base,de,,2014-04-28 13:54:54,Default Store View,0,,,,Julia,,1,Thorwesten,,1dd432a29438dde8a92ab8b8a4869a41:lH,Frau,,,1,,,1,,Hagen am Teutoburger Wald,,DE,,Julia,Thorwesten,,49170,Frau,Niedersachsen,Neuer Kamp 15b,,54013689355,,1,1
barbara.manthey@unitybox.de,base,de,,2014-04-30 15:34:17,Default Store View,0,,,,Barbara,,1,Manthey,,f418750706b5ba581b425a8970627f16:iQ,Frau,,,1,,,1,,Krefeld,,DE,,Barbara,Manthey,,47800,Frau,Nordrhein-Westfalen,Fuchspfad 6,,02151 598519,,1,
info@heufelders.de,base,de,,2014-04-30 19:26:40,Default Store View,0,,,,Karin,,1,Heufelder,,b9ebb10589292b925c7333971a9feba2:ZD,Frau,,,1,,,1,,Glienicke,,DE,,Karin,Heufelder,,16548,Frau,Brandenburg,Am Kiesgrund 2a,,33,,1,
M.wietzorek@gmx.de,base,de,,2014-05-03 19:17:30,Default Store View,0,,,,Marisa,,1,Wietzorek,,f450f9a2e4ebf20f5b486c9a31480431:QI,Frau,,,1,,,1,,Haltern am See,,DE,,Marisa,Wietzorek,,45721,Frau,Nordrhein-Westfalen,Birkenkamp 48,,02364/6089580,,1,
doreenhoppe@web.de,base,de,,2014-05-05 20:18:51,Default Store View,0,,,,doreen,,1,hoppe,,9bd4bad2a6ea91b462d2d62ca3c425ea:Yn,Frau,,,1,,,1,,roden,,DE,,doreen,hoppe,,97849,Frau,Bayern,oberdorfstr. 35,,1715168278,,1,1
containerroemer@arcor.de,base,de,,2014-05-06 08:07:45,Default Store View,0,,,,Melitta,,1,Römer,,551f541ba60a4ca2acb57ebd7bd91463:c1,Frau,,,1,,,1,,Braunschweig,,DE,,Melitta,Römer,,38118,Frau,Niedersachsen,Madamenweg 121,,0177 7508697,,1,1
rheinnaht@gmail.com,base,de,,2014-05-06 08:44:41,Default Store View,0,,,,Anke,,1,Loosen,,86dc3a0e93f263c4c8c890fa8933f868:58,Frau,,,1,,,1,,,,,,,,,,,,,,,,,
claudia-effi@web.de,base,de,,2014-05-08 05:45:05,Default Store View,0,,,,Claudia,,1,Effelsberg,,e8d7e43e23d26e23cf8aad974ff7c65b:9U,Frau,,,1,,,1,,Mülheim,,DE,,Claudia,Effelsberg,,45473,Frau,Nordrhein-Westfalen,Auf der Heide 37,,0208 - 427695,,1,1
p-jaschinski@versanet.de,base,de,,2014-05-08 17:41:06,Default Store View,0,,,,Petra,,1,Jaschinski,,304dbbedfd0bbdb143d34960017dc4a3:NE,Frau,,,1,,,1,,Dortmund ,,DE,,Petra,Jaschinski,,44265,Frau,Nordrhein-Westfalen,Selbsthilfstrasse  4 a,,0231 484267,,1,1
verena.hermes@gmail.com,base,de,,2014-05-09 14:07:02,Default Store View,0,,,,Verena,,1,Hermes,,76af9d61c981f742fe3b4db272c9baa8:tq,Frau,,,1,,,1,,Greifenstein,,DE,,Verena,Hermes,,35753,Frau,Hessen,Mengerskircher Weg 5,,6477911899,,1,
kontakt@kramwerk.com,base,de,,2014-05-10 05:19:07,Default Store View,0,,,,Nicol,,1,Wulle,,3ebdf82c85edff89fe3df9c59c0db901:ga,Frau,,,1,,,1,,Dortmund,KramWerk,DE,,Nicol,Wulle,,44329,Frau,Nordrhein-Westfalen,Michaelstr. 17,,1749997135,,1,
manuelabamert@gmx.ch,base,de,,2014-05-10 19:43:44,Default Store View,0,,,,Roman,,1,Podaril,,180cb4d74caea8a0f46693dbf2ed49ac:Q3,Frau,,,1,,,1,,Siebnen Schweiz,,DE,,Roman,Podaril,,8854,Frau,Niedersachsen,Zürcherstrasse 40,,41554408420,,1,
cornelia.handorn@t-online.de,base,de,,2014-05-11 14:53:27,Default Store View,0,,,,Cornelia,,1,Handorn,,4bb8b63d2717d6f60d928d63e0d23e8b:zL,Frau,,,1,,,1,,Tangstedt,,DE,,Cornelia,Handorn,,22889,Frau,Schleswig-Holstein,Harksheider Straße 110a,,4109251630,,1,1
petrakuebler@aol.com,base,de,,2014-05-11 16:51:00,Default Store View,0,,,,Petra,,1,Kübler,,6047f46bb9c2873e21d79bfb9efb693d:VS,Frau,,,1,,,1,,Sontheim an der Brenz,,DE,,Petra,Kübler,,89567,Frau,Baden-Württemberg,Medlinger Strasse 9,,7325923401,,1,1
lorebartels@t-online.de,base,de,,2014-05-14 19:16:09,Default Store View,0,,,,Lore,,1,Bartels,,8708aff055dfefc2f95c91f11360e2ad:Sn,Frau,,,1,,,1,,Hamburg,,DE,,Lore,Bartels,,20255,Frau,Hamburg,Stellinger Weg 26,,40403312,,1,1
Bitzmami@gmail.com,base,de,,2014-05-15 09:19:09,Default Store View,0,,,,Tania,,1,Brosius,,b32f20054dd062bfd4dd7956c7ab331c:MX,Frau,,,1,,,1,,,,,,,,,,,,,,,,,
jcgerrits@web.de,base,de,,2014-05-15 11:24:23,Default Store View,0,,,,Claudia,,1,Gerrits,,e8ca7987968ed38d5fb4b2708276ab42:zL,Frau,,,1,,,1,,Bedburg,,DE,,Claudia,Gerrits,,50181,Frau,Nordrhein-Westfalen,Zaunstrasse 68,,1725340300,,1,1
S_Erd@gmx.de,base,de,,2014-05-19 18:48:26,Default Store View,0,,,,Sarah,,1,Erdmann,,4d0b601d3c5af91b880d8886a6dc4498:MM,Frau,,,1,,,1,,Lehrte,,DE,,Sarah,Erdmann,,31275,Frau,Niedersachsen,Zur Wildtränke 10,,05175/954636,,1,1
silvia.wolz@t-online.de,base,de,,2014-05-20 07:09:25,Default Store View,0,,,,Silvia,,1,Wolz,,bb74c78211f01f0a897d4c4e5a905d26:d7,Frau,,,1,,,1,,Babenhausen,,DE,,Silvia,Wolz,,64832,Frau,Hessen,Kleestädter Straße 35,,06073 731040,,1,
ab.renz@t-online.de,base,de,,2014-05-22 19:56:29,Default Store View,0,,,,Anne,,1,Renz,,47d4e8ec4b4b9a6fcbf4532020d548ca:UP,Frau,,,1,,,1,,Holzgerlingen,,DE,,Anne,Renz,,71088,Frau,Baden-Württemberg,Rechbergstr. 26,,7031415904,,1,
info@sillydesign.de,base,de,,2014-05-25 18:07:07,Default Store View,0,,,,Silke,,1,Giese,,992d0f1211710507813061ae6115690d:9Z,Frau,,,1,,,1,,Kamp - Lintfort,Silke Giese,DE,,Silke,Giese,,47475,Frau,Nordrhein-Westfalen,Saalhoffer Str. 271,,02842/1220200,,1,
connyer@sunrise.ch,base,de,,2014-05-26 07:48:55,Default Store View,0,,,,Cornelia,,1,Egli,,5db0c4d60d78c7d454299e1fcb7ed145:P8,Frau,,,1,,,1,,8965,,DE,,Cornelia,Egli,,Berikon,Frau,Saarland,Moosstrasse 5,,0041 56 631 31 70,,1,
sirucekgudrun@web.de,base,de,,2014-05-27 12:58:02,Default Store View,0,,,,Gudrun,,1,Sirucek,,731667045a5797b299add0b614f18742:FA,Frau,,,1,,,1,,Springe,Dachdeckerei Sirucek,DE,,Gudrun,Sirucek,,31832,Frau,Niedersachsen,In der Wanne 3,,05041/61779,,1,1
erika.gutknecht@meineinkauf.ch,base,de,,2014-05-28 12:02:42,Default Store View,0,,,,Mein,,1,Einkauf,,3416ab48eeb16deb676578f8ca9fe172:h5,Frau,,,1,,,1,,Konstanz,MeinEinkauf GmbH ,DE,,Mein,Einkauf,,78467,Frau,Baden-Württemberg,Max-Strohmeyer-Strasse 116,,+41 558 85 52,,1,
atreyu0@web.de,base,de,,2014-05-29 16:42:37,Default Store View,0,,,,Nadine,,1,Baisch,,7789a5429368b51c9dd5341070b63069:uS,Frau,,,1,,,1,,Erligheim,,DE,,Nadine,Baisch,,74391,Frau,Baden-Württemberg,Friedhofstr 8,,1785936098,,1,
winterfee@bluewin.ch,base,de,,2014-05-29 17:07:46,Default Store View,0,,,,Claudia,,1,Ehrensperger,,3489a71af1c71de0eea5b4aff6797ad9:D5,Frau,,,1,,,1,,Konstanz,Biotop-Grenzpaket,DE,,Claudia,Ehrensperger (7962),,78462,Frau,Baden-Württemberg,Hüetlinstrasse 32,,41522382006,,1,1
hentzschel20@googlemail.com,base,de,,2014-05-30 10:26:05,Default Store View,0,,,,susanne,,1,hentzschel,,eca44224846d4961c30b755600fc9edc:Ii,Frau,,,1,,,1,,nünchritz,,DE,,susanne,hentzschel,,1612,Frau,Sachsen,karl-marx-straße 38,,15222806890,,1,1
ilka.kurfess@web.de,base,de,,2014-05-31 21:22:48,Default Store View,0,,,,Ilka,,1,Kurfess,,a31f734aa9fe9830edeb48254305d34f:DK,Frau,,,1,,,1,,Filderstadt,,DE,,Ilka,Kurfess,,70794,Frau,Baden-Württemberg,Panoramastr. 4,,7117799443,,1,
cmarqua@gmail.com,base,de,,2014-06-01 09:27:28,Default Store View,0,,,,Chris,,1,Spennes,,ab47115c34ae124316a6d58798920134:ZG,Frau,,,1,,,1,,,,,,,,,,,,,,,,,
kim@twentyfive-a.com,base,de,,2014-06-01 18:33:00,Default Store View,0,,,,Kim Nadine,,1,Adamek,,9a0ee0d9320c5d6f080dd631f49efb6e:XO,Frau,,,1,,,1,,Hattingen,"twentyfive a, Kim Nadine Adamek",DE,,Kim Nadine,Adamek,,45529,Frau,Nordrhein-Westfalen,Lange Straße 25a,,49232441074,,1,1
Annette-Schwarz@gmx.de,base,de,,2014-06-01 20:58:06,Default Store View,0,,,,Annette,,1,Schwarz,,6d813585d97efef5ff152431e22743b1:DK,Frau,,,1,,,1,,Weeze,,DE,,Annette,Schwarz,,47652,Frau,Nordrhein-Westfalen,Holtumsweg 4,,02837/2100,,1,1
sk@littlepicture.de,base,de,,2014-06-01 21:36:53,Default Store View,0,,,,Stephanie,,1,Klein,,b8942a11138a773757c5028adab42aeb:fM,Frau,,,1,,,1,,Holm,,DE,,Stephanie,Klein,,25488,Frau,Schleswig-Holstein,Hauptstrasse 15c,,04103 90 39 133,,1,
jenny.krasser@web.de,base,de,,2014-06-03 04:30:47,Default Store View,0,,,,Jenny,,1,Krasser,,9f06d56f1118aedf4978b6b83a679c1c:4j,Frau,,,1,,,1,,Wietzendorf,Jenikra -unikate-,DE,,Jenny,Krasser,,29649,Frau,Niedersachsen,August-Schumacher-Weg 9,,5196250994,,1,
Angelll79@aol.com,base,de,,2014-06-03 09:39:19,Default Store View,0,,,,Kathrin,,1,Ruppert,,f4bca491ca9cf154cc47c8aacd5a5a34:W9,Frau,,,1,,,1,,Salzgitter,,DE,,Kathrin,Ruppert,,38259,Frau,Niedersachsen,Hainbergblick 60,,05341/902388,,1,
schwarze.cord@web.de,base,de,,2014-06-03 09:55:44,Default Store View,0,,,,Cordula,,1,Schwarze,,9ef3d58aec73ce80086c1ccf1bddac84:qk,Frau,,,1,,,1,,Laatzen,,DE,,Cordula,Schwarze,,30880,Frau,Niedersachsen,Liethweg 1,,1705304330,,1,1
Swigingneedle@gmail.com,base,de,,2014-06-03 14:25:24,Default Store View,0,,,,Carole,,1,Bruckner&KochSenc,,a96b7567908637eb21ecd552b1890ee0:fk,Frau,,,1,,,1,,Perl,Bruckner&KochSenc,DE,,Carole,Bruckner,,66706,Frau,Rheinland-Pfalz,Triererstrasse &,,26672024,,1,1
gassmann.andrea@gmail.com,base,de,,2014-06-03 20:30:17,Default Store View,0,,,,Andrea,,1,Gaßmann,,fd38e4985b3a46941d436e46b0c3d839:n1,Frau,,,1,,,1,,Metzingen,,DE,,Andrea,Gaßmann,,72555,Frau,Baden-Württemberg,Nürtinger Str. 65/2,,7123954540,,1,
nadja.siesto@bluewin.ch,base,de,,2014-06-04 08:43:02,Default Store View,0,,,,Nadja ,,1,Siesto,,c7939f16f661694a6e67bd8d807bf2c8:oN,Frau,,,1,,,1,,,,,,,,,,,,,,,,,
sigrid.ticheloven@gustav-adolf-schule-goch.de,base,de,,2014-06-05 09:47:44,Default Store View,0,,,, Lena,,1,Hilringhaus,,171449aa5f0a686b2d1200af432b2eff:Fk,Frau,,,1,,,1,,Goch,Gustav-Adolf-Schule Goch,DE,02823-418703, Lena,Hillringhaus,,47574,Frau,Nordrhein-Westfalen,Wiesenstraße 87,,02823-93400,,1,1
happyfabric@briddl.de,base,de,,2014-06-06 11:26:35,Default Store View,0,,,,Britta,,1,Göner,,7adf0c8357eb133ccfcdc1ba377a721a:ep,Frau,,,1,,,1,,,,,,,,,,,,,,,,,
Scholz.Jasmin@web.de,base,de,,2014-06-07 08:18:46,Default Store View,0,,,,Jasmin,,1,Scholz,,5a557a42e5dcde25f1274c1fd61da3d0:EZ,Frau,,,1,,,1,,Barmstedt,,DE,,Jasmin,Scholz,,25355,Frau,Schleswig-Holstein,Mühlenweg 12,,41238082692,,1,
tanjakellenberger@bluewin.ch,base,de,,2014-06-08 12:07:11,Default Store View,0,,,,Tanja,,1,Kellenberger,,a9227f2b1bfce422c28acedefacd914b:58,Frau,,,1,,,1,,,,,,,,,,,,,,,,,
annika.galla@googlemail.com,base,de,,2014-06-08 14:38:14,Default Store View,0,,,,Annika,,1,Galla,,8eb4c86cd7c8f4c29447d15c376aed10:p3,Frau,,,1,,,1,,Herne,,DE,,Annika,Galla,,44625,Frau,Nordrhein-Westfalen,Aschebrock 20b,,1636912908,,1,
zfa-80@gmx.de,base,de,,2014-06-08 16:32:21,Default Store View,0,,,,Angelique,,1,Schroeter,,25566a60ea0741f53ccb685e7fe7c357:o8,Frau,,,1,,,1,,,,,,,,,,,,,,,,,
Bianca.ernst@gmx.net,base,de,,2014-06-08 17:39:55,Default Store View,0,,,,Bianca,,1,Ernst,,323b8fa18349aeb3ae1927f2abf8ac69:Hv,Frau,,,1,,,1,,Brüggen,Decoration for Business,DE,,Bianca,Ernst,,41379,Frau,Nordrhein-Westfalen,Haverslohe 30b,,2163578037,,1,
astrid.luecke@gmail.com,base,de,,2014-06-08 20:37:29,Default Store View,0,,,,Astrid ,,1,Lücke,,dc31ccee80eb35150335d64eb579ea65:fj,Frau,,,1,,,1,,Dortmund ,,DE,,Astrid ,Lücke,,44388,Frau,Nordrhein-Westfalen,Westermannstr. 32,,1772495227,,1,
inahenning@yahoo.de,base,de,,2014-06-10 06:47:59,Default Store View,0,,,,Ina,,1,Henning,,6ed11d0e745f325d80a356176bb93124:Nb,Frau,,,1,,,1,,Egelsbach,,DE,,Ina,Henning,,63329,Frau,Hessen,Thüringer Str.16,,06103 2001960,,1,1
anja.adelberg@gmx.de,base,de,,2014-06-10 09:06:18,Default Store View,0,,,,anja,,1,adelberg,,988836813211e43a083d9e55f9ce9539:0y,Frau,,,1,,,1,,Halle,steuerberater,DE,,anja,adelberg,,6126,Frau,Sachsen-Anhalt,wieselweg 4,,0345/2036416,,1,
nicole.saga@googlemail.com,base,de,,2014-06-10 20:42:20,Default Store View,0,,,,Nicole ,,1,Saga ,,927c10cd8c988f53e959f7d417be5dde:hD,Frau,,,1,,,1,,Jüchen ,SagaWorld ,DE,,Nicole ,Saga ,,41363,Frau,Nordrhein-Westfalen,Kurzer Weg 6,,1735697085,,1,
MIAS-Abenteuerland@web.de,base,de,,2014-06-10 21:43:37,Default Store View,0,,,,Nicole,,1,Huffelmann,,1ccf8c37cdc47e1a52a09e282b76e7bf:r6,Frau,,,1,,,1,,Hamm,MIAS Abenteuerland,DE,,Nicole,Huffelmann,,59071,Frau,Nordrhein-Westfalen,Frielinghauser Str. 4,,23849209656,,1,
manuela.gass@online.de,base,de,,2014-06-11 09:54:31,Default Store View,0,,,,Manuela,,1,Gaß,,29cefd39552a84d7adcaf40f6271d5d1:v4,Frau,,,1,,,1,,Oberursel,Manu'G,DE,,Manuela,Gaß,,61440,Frau,Hessen,Gattenhöferweg 24b,,0170-4658012,,1,
stoffyard@t-online.de,base,de,,2014-06-11 10:19:05,Default Store View,0,,,,Mike,,1,Biermann,,b8b6d9b380f55bb3842368b2e8f4dc55:LW,Frau,,,1,,,1,,Münster ,STOFF & zugenäht ,DE,,Mike,Biermann,,48151,Frau,Nordrhein-Westfalen,Kappenberger Damm 239,,0251 2760330,,1,1
ellen-mietkellnerin@t-online.de,base,de,,2014-06-11 10:28:45,Default Store View,0,,,,Ellen,,1,Schippel-Reise,,1ea8e6652911b2ef57748cc988a14dac:dd,Frau,,,1,,,1,,Uhlstädt-Kirchhasel,,DE,,Ellen,Schippel-Reise,,7407,Frau,Thüringen,Weißen 24,,3674267395,,1,
Annkathrinschulte@me.com,base,de,,2014-06-11 11:23:27,Default Store View,0,,,,Ann-Kathrin,,1,Haas,,ee36965d7eea7ec5d10a2cff837e9f70:HI,Frau,,,1,,,1,,Engelskirchen ,,DE,,Ann-Kathrin,Haas,,51766,Frau,Nordrhein-Westfalen,Bergstraße 3,,22639027245,,1,1
maui-shop@gmx.ch,base,de,,2014-06-11 12:15:34,Default Store View,0,,,,Rachel,,1,Arnold,,c198afc226e97327160afc0f3a4fee45:JW,Frau,,,1,,,1,,,,,,,,,,,,,,,,,
kaianja@gmail.com,base,de,,2014-06-11 21:50:23,Default Store View,0,,,,Kai Anja,,1,Kurtenbach,,20cb4457f3c7d44d54e46cdb1c2b6898:eH,Frau,,,1,,,1,,,,,,,,,,,,,,,,,
astrokate@aol.com,base,de,,2014-06-13 14:11:25,Default Store View,0,,,,Katja,,1,Probst,,671331034c65432a9837a062120ee419:gi,Frau,,,1,,,1,,Püttlingen,,DE,,Katja,Probst,,66346,Frau,Saarland,Am Heidküppel 47,,0178-3568222,,1,
michaela-yoga@t-online.de,base,de,,2014-06-13 16:35:44,Default Store View,0,,,,Michaela,,1,Bovens,,159ae22617409215bcc6c42b9e88063b:Rk,Frau,,,1,,,1,,Viersen,,DE,,Michaela,Bovens,,41749,Frau,Nordrhein-Westfalen,Van-Beers-Str.21,,21628184490,,1,1
reginestruckmeyer@web.de,base,de,,2014-06-15 10:46:45,Default Store View,0,,,,Regine,,1,Struckmeyer,,a0f5688e79e9c3bdbac538fe67c3045d:um,Frau,,,1,,,1,,Nienstädt,,DE,,Regine,Struckmeyer,,31688,Frau,Niedersachsen,Leuchtenburgstr. 21 b,,0174-3313933,,1,1
s.arkenau@web.de,base,de,,2014-06-16 07:02:46,Default Store View,0,,,,Sylvia ,,1,Arkenau,,d6ae0ae4b4b26fcf264da72ccad4c4b4:cX,Frau,,,1,,,1,,Varel,,DE,,Sylvia ,Arkenau,,26316,Frau,Niedersachsen,Moorkamp 5,,445195022,,1,
laleli@gmx.de,base,de,,2014-06-19 20:30:02,Default Store View,0,,,,Lisa,,1,Weghorn,,877c260823079bcce99f8318068a620a:z8,Frau,,,1,,,1,,Fürth,,DE,,Lisa,Weghorn,,90763,Frau,Bayern,Amalienstr. 69,,1606406495,,1,
s-s.hergt@t-online.de,base,de,,2014-06-22 20:12:22,Default Store View,0,,,,Susen,,1,Hergt,,386afa7d5bc5881b252e81a73536be0c:72,Frau,,,1,,,1,,Schloßvippach,,DE,,Susen,Hergt,,99195,Frau,Thüringen,Mittelgasse 19,,1234,,1,
fadenzeugs@googlemail.com,base,de,,2014-06-23 07:31:00,Default Store View,0,,,,Andrea,,1,Fortwengel,,9e1303b9164d6eb7e18fee8e6328ae2c:Be,Frau,,,1,,,1,,Friesoythe,,DE,,Andrea,Fortwengel,,26169,Frau,Niedersachsen,Werlter Weg 11,,04493 9984851,,1,
sharbach@gmx.de,base,de,,2014-06-25 07:00:03,Default Store View,0,,,,Susanne,,1,Harbach,,01f04d2136e7548a809b677da6182d6a:q7,Frau,,,1,,,1,,Köln,Stick-Out,DE,,Susanne,Harbach,,50997,Frau,Nordrhein-Westfalen,Am Blauen Stein 18,,02233-280342,,1,
bastelecke@stephanie-waldschmidt.de,base,de,,2014-06-26 17:01:59,Default Store View,0,,,,Stephanie,,1,Waldschmidt,,357996bdffcbd904910bc5973f594854:aK,Frau,,,1,,,1,,Duisburg,,DE,,Stephanie,Waldschmidt,,47228,Frau,Nordrhein-Westfalen,Beguinenstr. 94,,20659271914,,1,
stolnik@freenet.de,base,de,,2014-06-27 09:55:00,Default Store View,0,,,,Roberto,,1,Stolnik,,376983ffe7194d4e9bc5facd418eae79:I5,Herr,,,1,,,1,,Beuren,,DE,,Roberto,Stolnik,,72660,Herr,Baden-Württemberg,Jahnstrasse 24,,70251360761,,1,
raab-katharina@t-online.de,base,de,,2014-06-29 14:01:16,Default Store View,0,,,,Katharina,,1,Raab,,67cfd115a10903719eac8c4e2edadad6:b6,Frau,,,1,,,1,,Darmstadt,,DE,,Katharina,Raab,,64283,Frau,Hessen,Kiesstrasse 41,,06151 4297739,,1,1
pe.ter@arcor.de,base,de,,2014-06-30 11:19:22,Default Store View,0,,,,Sabine,,1,Peter,,e2a603fe29268a24b18a0aa9ac88fe06:TX,Frau,,,1,,,1,,Oberschleißheim,,DE,,Sabine,Peter,,85764,Frau,Bayern,Lodershamweg 7,,891401360,,1,
bribro75@gmx.de,base,de,,2014-06-30 16:56:34,Default Store View,0,,,,Britta,,1,Broselge,,1ce0fa4fe19ba60f807a0688b5248bb1:vM,Frau,,,1,,,1,,Obersulm,,DE,,Britta,Broselge,,74182,Frau,Baden-Württemberg,Wilder Graben 10,,71305080342,,1,
i.vorreiter@unikarte.biz,base,de,,2014-07-01 14:47:57,Default Store View,0,,,,Ina,,1,Vorreiter,,6acce6edbefd6a342d32267428ed76ea:gH,Frau,,,1,,,1,,Hamburg,Unikarte,DE,,Ina,Vorreiter,,21147,Frau,Hamburg,Hönermoor 3,,4052982020,,1,1
lueske@gmx.de,base,de,,2014-07-02 19:01:49,Default Store View,0,,,,Gabriele,,1,Neyenhuis,,d01a9cb770c482cee1e764d572512415:Fa,Frau,,,1,,,1,,Mülheim an der Ruhr,,DE,,Gabriele,Neyenhuis,,45476,Frau,Nordrhein-Westfalen,Neustadtstr 66,,208779141,,1,1
sylke@lexows.de,base,de,,2014-07-09 15:01:05,Default Store View,0,,,,Sylke,,1,Lexow,,0389568a6d35e0437406a4d1ffba0041:su,Frau,,,1,,,1,,Sulzheim,,DE,,Sylke,Lexow,,55286,Frau,Rheinland-Pfalz,Grundweg 6,,0171-4989334,,1,
christiane.fitzon@gmail.com,base,de,,2014-07-10 14:40:26,Default Store View,0,,,,Christiane O. A. ,,1,Fitzon,,b0dc71cb6bfc0a875b67b119f1f2376f:Pv,Frau,,,1,,,1,,München,,DE,,Christiane O. A. ,Fitzon,,81369,Frau,Bayern,Konrad-Celtis-Str. 88,,896926457,,1,
kuhlmannbarbara@gmx.de,base,de,,2014-07-11 08:33:59,Default Store View,0,,,,Barbara,,1,Kuhlmann,,73e5d21f16e53069224da0dd6a8211fb:6x,Frau,,,1,,,1,,Gelsenkirchen,Miss Plot-a-Lot,DE,,Barbara,Kuhlmann,,45879,Frau,Nordrhein-Westfalen,Wanner Str. 16,,0176/47019526,,1,
Stickliebe@web.de,base,de,,2014-07-15 19:19:49,Default Store View,0,,,,Katja,,1,von Hagen,,29d3aeb757e0685ec0b868ec2632ac44:3s,Frau,,,1,,,1,,Recklinghausen,Stickliebe,DE,,Katja,von Hagen,,45659,Frau,Nordrhein-Westfalen,Holthoffstr. 68,,02361-4900771,,1,
susannerudl@yahoo.de,base,de,,2014-07-21 19:36:24,Default Store View,0,,,,Susanne,,1,Rudl,,50ea33668622c75153a6c824615c13ed:EU,Frau,,,1,,,1,,Lich,,DE,,Susanne,Rudl,,35423,Frau,Hessen,Oberstadt 12a,,0172/6664335,,1,1
eishexe@hotmail.com,base,de,,2014-07-22 11:33:20,Default Store View,0,,,,Andrea,,1,Sölder,,bf9ec158c404af0288984058ba746715:ke,Frau,,,1,,,1,,Rielasingen,co. Karin Wirnsperger,DE,,Andrea,Sölder,,78239,Frau,Baden-Württemberg,Mozartstrasse 6,,0041 52 385 37 48,,1,1
nicole.langer@sinocreations.de,base,de,,2014-07-25 09:11:19,Default Store View,0,,,,Volker,,1,Langer,,59efa1dff12e3b526305e8405f5f0f6d:yw,Herr,,,1,,,1,,Frechen,Sinocreations,DE,,Volker,Langer,,50226,Herr,Nordrhein-Westfalen,Römerhofalle 7,,2234658912,,1,
carolin-hartung@t-online.de,base,de,,2014-07-25 22:17:33,Default Store View,0,,,,Carolin,,1,Hartung,,884801c5f234f2688ff27f567454e9af:qu,Frau,,,1,,,1,,Lübeck,Nachteule,DE,,Carolin,Hartung,,23568,Frau,Schleswig-Holstein,Fuchssprung 14,,0451/35540,,1,
liebhabestueck@yahoo.de,base,de,,2014-07-30 07:15:17,Default Store View,0,,,,Angela,,1,Pickard,,a97f8b10e1505000cc32f3fef9ccdb00:RT,Frau,,,1,,,1,,Sundern,Angela Pickard,DE,,Angela,Pickard,,59846,Frau,Nordrhein-Westfalen,Kapellenstraße 38a,,02935 969552,,1,
m-ziegler@gmx.de,base,de,,2014-07-31 09:33:22,Default Store View,0,,,,Meike,,1,Ziegler,,7717785073f14a7647328af197bd4f50:GO,Frau,,,1,,,1,,Korschenbroich,,DE,,Meike,Ziegler,,41352,Frau,Nordrhein-Westfalen,Wolfstrasse 1a,,15256367343,,1,
nicole.schlesinger1@ewetel.net,base,de,,2014-07-31 09:44:52,Default Store View,0,,,,Nicole,,1,Schlesinger,,0f4d1b55882a97934aecb6ab56084d92:Lw,Frau,,,1,,,1,,Loxstedt,,DE,,Nicole,Schlesinger,,27612,Frau,Niedersachsen,Wiesenstr.14a,,4744904727,,1,
michaelaschieber@t-online.de,base,de,,2014-07-31 10:54:21,Default Store View,0,,,,Michaela,,1,Schieber,,881f8d9ecc89b899304546cc2ca2d166:0b,Frau,,,1,,,1,,,,,,,,,,,,,,,,,
siwode33@hotmail.de,base,de,,2014-07-31 17:11:41,Default Store View,0,,,,Tanja,,1,Kipping,,eeafe31b2e493fdd1b21c23acd0bcf25:kW,Frau,,,1,,,1,,Neumünster,Chicca´s Life Design,DE,,Tanja,Kipping,,24539,Frau,Schleswig-Holstein,Segebergerstraße 42,,4943218939041,,1,1
rpiron@t-online.de,base,de,,2014-08-03 15:23:30,Default Store View,0,,,,Rosi,,1,Piron,,6882b65ff561ed7d10c39d5a27891cc8:VA,Frau,,,1,,,1,,Düsseldorf,,DE,211434310,Rosi,Piron,,40472,Frau,Nordrhein-Westfalen,Niederbeckstr. 29,,211410333,,1,
osas_inno@yahoo.co.uk,base,de,,2014-08-04 22:37:00,Default Store View,0,,,,agbonyima,,1,osas,,82d8a253bd827b526e263b6226ac1c3a:T8,Frau,,,1,,,1,,köln,o&f fashion,DE,,agbonyima,osas,,51063,Frau,Nordrhein-Westfalen,deutz-mulheimer str.310,,15213345984,,1,1
Tallula@web.de,base,de,,2014-08-06 15:14:24,Default Store View,0,,,,Gabi,,1,Jülichs,,eccb960476cf1b0d159e57c68fa960b6:Ne,Frau,,,1,,,1,,,,,,,,,,,,,,,,,
christine@plank-grafik.at,base,de,,2014-08-07 20:17:04,Default Store View,0,,,,Christine,,1,Plank,,1996c135a359a6e4ed2d24a5afedb484:Wk,Frau,,,1,,,1,,,,,,,,,,,,,,,,,
mallmann.nicole7@googlemail.com,base,de,,2014-08-10 12:49:03,Default Store View,0,,,,Nicole,,1,Mallmann,,89cf45ae4f81966c765d534fb0cd18b0:TO,Frau,,,1,,,1,,,,,,,,,,,,,,,,,
k.wangen@web.de,base,de,,2014-08-11 04:55:24,Default Store View,0,,,,Katja,,1,Wangen,,6791c546f73d0e6c8da4825a9768194a:LN,Frau,,,1,,,1,,Kamp-Lintfort,,DE,,Katja,Wangen,,47475,Frau,Mecklenburg-Vorpommern,Max-Planck-Str. 15a,,0162 2012412,,1,1
barbara.horn@gmx.at,base,de,,2014-08-15 10:16:55,Default Store View,0,,,,Barbara,,1,Horn,,337fdadbcc227688472d99b5392fb162:Av,Frau,,,1,,,1,,,,,,,,,,,,,,,,,
anjawolff.tps@gmail.com,base,de,,2014-09-09 11:20:53,Deutsch,0,,,,Anja,,1,Wolff,,21868807b3d2fc2638f0684ec6b1b275:0MN9fjNMTGAY3wNsLjwL34F6oWggjXA6,Frau,,,1,,,1,,berlin,,DE,,Anja,Wolff,,12161,Frau,,Stubenrauchstraße 49,,030 897 47 348,,1,1
markuskurtz@groupestahleurope.com,base,de,,2014-05-14 13:44:10,Deutsch,0,,,,Markus,,1,Kurtz,,aa3fe5afed6d135b7432cb9209b2aadc:2p,Herr,,,2,,,1,,Berlin,GSE TPS,DE,,Markus,Kurtz,,12161,Herr,Berlin,Stubenrauchstr. 49,,030 / 897 47 348,,1,1
princess.print@yahoo.de,base,de,,2014-08-18 13:43:12,Deutsch,0,,,,Carsten,,1,Schulz,,3a5bab5c0e22bee9d1c6ebbe8d23bbdc:up,Herr,,,2,,,1,,Duisburg,PrincessPrint,DE,,Carsten,Schulz,,47228,Herr,Nordrhein-Westfalen,Eichenstr.19b,,1717058166,,1,
sunshinepower1@yahoo.de,base,de,,2014-08-20 05:23:04,Deutsch,0,,,,Marion,,1,Flocken,,61c3dc640fa3939770847712e68dd145:1p,Frau,,,2,,,1,,Mönchengladbach,,DE,,Marion,Flocken,,41169,Frau,Nordrhein-Westfalen,Pastorenkamp 61,,2161552994,,1,
faber.samantha@gmail.com,base,de,,2014-08-25 11:13:41,Deutsch,0,,,,Patrick,,1,Kremer,,6e8c3b69f679f09f585e188ea25c0311:Qv,Herr,,,2,,,1,,,,,,,,,,,,,,,,,
stefaniekorloch@gmx.de,base,de,,2014-08-30 18:03:28,Deutsch,0,,,,Stefanie,,1,Korloch,,e853b03c548fd20e0870c7c796913c44:oU,Frau,,,2,,,1,,Groß Kummerfeld,,DE,,Stefanie,Korloch,,24626,Frau,Schleswig-Holstein,Schafredder 31,,0172-4274843,,1,
dna.dani1@web.de,base,de,,2014-09-02 20:59:08,Deutsch,0,,,,Daniela,,1,Gerhartz,,5b3418ee3a69cec76c0f6a4fe987743c:pz,Frau,,,2,,,1,,Hennef,,DE,,Daniela,Gerhartz,,53773,Frau,Nordrhein-Westfalen,Blankenberger Strasse 85a,,17622949066,,1,1
sesiforkids@gmail.com,base,de,,2014-09-03 07:50:56,Deutsch,0,,,,Ayhan,,1,Karamik,,1bcf1432fc1c8df07673ab75dadb6e9d:Xt,Frau,,,2,,,1,,,,,,,,,,,,,,,,,
kontakt@happyfabric.de,base,de,,2014-09-04 10:55:44,Deutsch,0,,,,Susanne,,1,Tausendfreund,,67552c4b70cd54e0a2fe19df2cf9d33a:QI,Frau,,,0,,,1,,Vechta,,DE,,Susanne,Tausendfreund,,49377,Frau,Niedersachsen,Bei Meyers Hof 32,,ka,,1,1
petra.zangerl@gmail.com,base,de,,2014-09-05 06:46:12,Deutsch,0,,,,Petra,,1,Zangerl,,2a1a557fa1302621d4f78cd901e44237:mU,Frau,,,2,,,1,,,,,,,,,,,,,,,,,
info@fachkultur.de,base,de,,2014-09-09 20:39:30,Deutsch,0,,,,Vanessa,,1,Pfohl,,7f14437effec0c4deed45adfb488e503:jt,Frau,,,2,,,1,,Essen,Pfohl & Fasolo-Weiß GbR,DE,,Vanessa,Pfohl,,45149,Frau,Nordrhein-Westfalen,Humboldtstr. 234,,0201 87530738,,1,
cloodia@gmx.net,base,de,,2014-09-11 09:10:38,Deutsch,0,,,,Claudia,,1,Brändli,,a319b5c21f06c91934ecbb4a8ad2892e:NZ,Frau,,,2,,,1,,Laufenburg,EPS,DE,,Claudia und Adrian,Brändli-20076,,79725,Frau,Baden-Württemberg,Feldgrabenstrasse 3,,41793317062,,1,1
