
***********************************************************************
************************* dmconnector Shop *****************************
***********************************************************************
12.11.2014 - 14:10 Uhr

Uebergebene Daten:
  <GetDaten>
  </GetDaten>
  <PostDaten>
    <action>check_status</action>
    <user>dmconnector</user>
    <password>dmc#1211</password>
  <PostDaten>

 ********************************** 
ExportModus :.
Get Soap Connection to http://www.happyfabric.de/index.php/api/soap/?wsdldmc_db_connect - Verbindung zu Datenbank db375433_9 mit Version 5.6.19-67.0-log
user authentification Access denied for dmconnector/dmc#1211 Error=:
 SoapFault exception: [HTTP] Internal Server Error in /kunden/375433_12161/webseiten/happyfabric_08_2014/magento/dmcmag14/functions/dmc_use_soap.php:17
Stack trace:
#0 [internal function]: SoapClient->__doRequest('<?xml version="...', 'http://www.happ...', 'urn:Mage_Api_Mo...', 1, 0)
#1 /kunden/375433_12161/webseiten/happyfabric_08_2014/magento/dmcmag14/functions/dmc_use_soap.php(17): SoapClient->__call('login', Array)
#2 /kunden/375433_12161/webseiten/happyfabric_08_2014/magento/dmcmag14/functions/dmc_use_soap.php(17): SoapClient->login('dmconnector', 'dmc#1211')
#3 /kunden/375433_12161/webseiten/happyfabric_08_2014/magento/dmcmag14/dmconnector_magento.php(134): include('/kunden/375433_...')
#4 {main} 
Action= *check_status* mit Session= 0

***********************************************************************
************************* dmconnector Shop *****************************
***********************************************************************
12.11.2014 - 14:10 Uhr

Uebergebene Daten:
  <GetDaten>
  </GetDaten>
  <PostDaten>
    <action>check_status</action>
    <user>dmconnector</user>
    <password>dmc1211</password>
  <PostDaten>

 ********************************** 
ExportModus :.
Get Soap Connection to http://www.happyfabric.de/index.php/api/soap/?wsdldmc_db_connect - Verbindung zu Datenbank db375433_9 mit Version 5.6.19-67.0-log
api authentification failed ->  get session token over dmc_get_session_id, new ID= 7176b28a2aa6201175adb7ed4f473c9e
Action= *check_status* mit Session= 7176b28a2aa6201175adb7ed4f473c9e

***********************************************************************
************************* dmconnector Shop *****************************
***********************************************************************
12.11.2014 - 14:38 Uhr

Uebergebene Daten:
  <GetDaten>
  </GetDaten>
  <PostDaten>
    <action>check_status</action>
    <user>dmconnector</user>
    <password>dmc1211</password>
  <PostDaten>

 ********************************** 
ExportModus :.
Get Soap Connection to http://www.happyfabric.de/index.php/api/soap/?wsdldmc_db_connect - Verbindung zu Datenbank db375433_9 mit Version 5.6.19-67.0-log
user authentification Access denied for dmconnector/dmc1211 Error=:
 SoapFault exception: [HTTP] Internal Server Error in /kunden/375433_12161/webseiten/happyfabric_08_2014/magento/dmcmag14/functions/dmc_use_soap.php:17
Stack trace:
#0 [internal function]: SoapClient->__doRequest('<?xml version="...', 'http://www.happ...', 'urn:Mage_Api_Mo...', 1, 0)
#1 /kunden/375433_12161/webseiten/happyfabric_08_2014/magento/dmcmag14/functions/dmc_use_soap.php(17): SoapClient->__call('login', Array)
#2 /kunden/375433_12161/webseiten/happyfabric_08_2014/magento/dmcmag14/functions/dmc_use_soap.php(17): SoapClient->login('dmconnector', 'dmc1211')
#3 /kunden/375433_12161/webseiten/happyfabric_08_2014/magento/dmcmag14/dmconnector_magento.php(134): include('/kunden/375433_...')
#4 {main} 
Action= *check_status* mit Session= 0

***********************************************************************
************************* dmconnector Shop *****************************
***********************************************************************
19.12.2014 - 13:40 Uhr

Uebergebene Daten:
  <GetDaten>
  </GetDaten>
  <PostDaten>
    <action>check_status</action>
    <user>dmconnector</user>
    <password>dmc1211</password>
  <PostDaten>

 ********************************** 
ExportModus :.
Get Soap Connection to http://www.happyfabric.de/index.php/api/soap/?wsdldmc_db_connect - Verbindung zu Datenbank db375433_9 mit Version 5.6.19-67.0-log
api authentification failed ->  get session token over dmc_get_session_id, new ID= 99e351b70d795f64b5e420b58289ccac
Action= *check_status* mit Session= 99e351b70d795f64b5e420b58289ccac
Session 99e351b70d795f64b5e420b58289ccac closed.


***********************************************************************
************************* dmconnector Shop *****************************
***********************************************************************
19.12.2014 - 13:41 Uhr

Uebergebene Daten:
  <GetDaten>
  </GetDaten>
  <PostDaten>
    <action>check_orders</action>
    <user>dmconnector</user>
    <password>dmc1211</password>
    <order_status>1</order_status>
  <PostDaten>

 ********************************** 
ExportModus :.
Get Soap Connection to http://www.happyfabric.de/index.php/api/soap/?wsdldmc_db_connect - Verbindung zu Datenbank db375433_9 mit Version 5.6.19-67.0-log
user authentification Access denied for dmconnector/dmc1211 Error=:
 SoapFault exception: [2] Zugriff verweigert. in /kunden/375433_12161/webseiten/happyfabric_08_2014/magento/dmcmag14/functions/dmc_use_soap.php:17
Stack trace:
#0 /kunden/375433_12161/webseiten/happyfabric_08_2014/magento/dmcmag14/functions/dmc_use_soap.php(17): SoapClient->__call('login', Array)
#1 /kunden/375433_12161/webseiten/happyfabric_08_2014/magento/dmcmag14/functions/dmc_use_soap.php(17): SoapClient->login('dmconnector', 'dmc1211')
#2 /kunden/375433_12161/webseiten/happyfabric_08_2014/magento/dmcmag14/dmconnector_magento.php(134): include('/kunden/375433_...')
#3 {main} 
Action= *check_orders* mit Session= 0

***********************************************************************
************************* dmconnector Shop *****************************
***********************************************************************
19.12.2014 - 15:13 Uhr

Uebergebene Daten:
  <GetDaten>
  </GetDaten>
  <PostDaten>
    <action>check_status</action>
    <user>dillingen</user>
    <password>123456</password>
  <PostDaten>

 ********************************** 
ExportModus :.
Get Soap Connection to http://www.happyfabric.de/index.php/api/soap/?wsdlapi authentification, ->  get session token = 4a0f02672cf5dab8c02b7bfb5bc3d8c7 
Action= *check_status* mit Session= 4a0f02672cf5dab8c02b7bfb5bc3d8c7
Session 4a0f02672cf5dab8c02b7bfb5bc3d8c7 closed.


***********************************************************************
************************* dmconnector Shop *****************************
***********************************************************************
19.12.2014 - 15:13 Uhr

Uebergebene Daten:
  <GetDaten>
  </GetDaten>
  <PostDaten>
    <action>check_orders</action>
    <user>dillingen</user>
    <password>123456</password>
    <order_status>1</order_status>
  <PostDaten>

 ********************************** 
ExportModus :.
Get Soap Connection to http://www.happyfabric.de/index.php/api/soap/?wsdlapi authentification, ->  get session token = 7e7b1ecdea775731f81a7b8c69b6717f 
Action= *check_orders* mit Session= 7e7b1ecdea775731f81a7b8c69b6717f
checkOrders aufrufen mit session=7e7b1ecdea775731f81a7b8c69b6717f.
checkOrdersDB ... getOrdersSQLWhere dmc_db_connect - Verbindung zu Datenbank db375433_9 mit Version 5.6.19-67.0-log
(status='processing') AND created_at > '2012-04-27 00:00:00' 
 dmc_sql_select_value-SQL= 1 
 dmc_db_connect - Verbindung zu Datenbank db375433_9 mit Version 5.6.19-67.0-log
dmc_sql_select_value-SQL= 2 
 dmc_sql_select_value-SQL= SELECT count(*) AS wert FROM sales_flat_order WHERE (status='processing') AND created_at > '2012-04-27 00:00:00'  -> 5 .
Session 7e7b1ecdea775731f81a7b8c69b6717f closed.


***********************************************************************
************************* dmconnector Shop *****************************
***********************************************************************
19.12.2014 - 15:13 Uhr

Uebergebene Daten:
  <GetDaten>
  </GetDaten>
  <PostDaten>
    <action>check_orders</action>
    <user>dillingen</user>
    <password>123456</password>
    <order_status>1</order_status>
  <PostDaten>

 ********************************** 
ExportModus :.
Get Soap Connection to http://www.happyfabric.de/index.php/api/soap/?wsdlapi authentification, ->  get session token = 776874ec05837620b05e5917d1938056 
Action= *check_orders* mit Session= 776874ec05837620b05e5917d1938056
checkOrders aufrufen mit session=776874ec05837620b05e5917d1938056.
checkOrdersDB ... getOrdersSQLWhere dmc_db_connect - Verbindung zu Datenbank db375433_9 mit Version 5.6.19-67.0-log
(status='processing') AND created_at > '2012-04-27 00:00:00' 
 dmc_sql_select_value-SQL= 1 
 dmc_db_connect - Verbindung zu Datenbank db375433_9 mit Version 5.6.19-67.0-log
dmc_sql_select_value-SQL= 2 
 dmc_sql_select_value-SQL= SELECT count(*) AS wert FROM sales_flat_order WHERE (status='processing') AND created_at > '2012-04-27 00:00:00'  -> 5 .
Session 776874ec05837620b05e5917d1938056 closed.


***********************************************************************
************************* dmconnector Shop *****************************
***********************************************************************
19.12.2014 - 15:14 Uhr

Uebergebene Daten:
  <GetDaten>
  </GetDaten>
  <PostDaten>
    <action>Status</action>
    <user>dillingen</user>
    <password>123456</password>
    <Status>ErpDetails_end</Status>
  <PostDaten>

 ********************************** 
ExportModus :.
Get Soap Connection to http://www.happyfabric.de/index.php/api/soap/?wsdlapi authentification, ->  get session token = 34148118ac75b1ab112f36422c7f9dd9 
Action= *Status* mit Session= 34148118ac75b1ab112f36422c7f9dd9

******************dmc_status mit Status ErpDetails_end ******************
Session 34148118ac75b1ab112f36422c7f9dd9 closed.


***********************************************************************
************************* dmconnector Shop *****************************
***********************************************************************
13.01.2015 - 16:40 Uhr

Uebergebene Daten:
  <GetDaten>
  </GetDaten>
  <PostDaten>
    <action>check_orders</action>
    <user>dmconnector</user>
    <password>dmc1211</password>
    <order_status>1</order_status>
  <PostDaten>

 ********************************** 
ExportModus :.
Get Soap Connection to http://www.happyfabric.de/index.php/api/soap/?wsdldmc_db_connect - Verbindung zu Datenbank db375433_9 mit Version 5.6.19-67.0-log
user authentification Access denied for dmconnector/dmc1211 Error=:
 SoapFault exception: [2] Zugriff verweigert. in /kunden/375433_12161/webseiten/happyfabric_08_2014/magento/dmcmag14/functions/dmc_use_soap.php:17
Stack trace:
#0 /kunden/375433_12161/webseiten/happyfabric_08_2014/magento/dmcmag14/functions/dmc_use_soap.php(17): SoapClient->__call('login', Array)
#1 /kunden/375433_12161/webseiten/happyfabric_08_2014/magento/dmcmag14/functions/dmc_use_soap.php(17): SoapClient->login('dmconnector', 'dmc1211')
#2 /kunden/375433_12161/webseiten/happyfabric_08_2014/magento/dmcmag14/dmconnector_magento.php(134): include('/kunden/375433_...')
#3 {main} 
Action= *check_orders* mit Session= 0

***********************************************************************
************************* dmconnector Shop *****************************
***********************************************************************
13.01.2015 - 16:41 Uhr

Uebergebene Daten:
  <GetDaten>
  </GetDaten>
  <PostDaten>
    <action>check_orders</action>
    <user>dmconnector</user>
    <password>dmc1211</password>
    <order_status>1</order_status>
  <PostDaten>

 ********************************** 
ExportModus :.
Get Soap Connection to http://www.happyfabric.de/index.php/api/soap/?wsdldmc_db_connect - Verbindung zu Datenbank db375433_9 mit Version 5.6.19-67.0-log
user authentification Access denied for dmconnector/dmc1211 Error=:
 SoapFault exception: [2] Zugriff verweigert. in /kunden/375433_12161/webseiten/happyfabric_08_2014/magento/dmcmag14/functions/dmc_use_soap.php:17
Stack trace:
#0 /kunden/375433_12161/webseiten/happyfabric_08_2014/magento/dmcmag14/functions/dmc_use_soap.php(17): SoapClient->__call('login', Array)
#1 /kunden/375433_12161/webseiten/happyfabric_08_2014/magento/dmcmag14/functions/dmc_use_soap.php(17): SoapClient->login('dmconnector', 'dmc1211')
#2 /kunden/375433_12161/webseiten/happyfabric_08_2014/magento/dmcmag14/dmconnector_magento.php(134): include('/kunden/375433_...')
#3 {main} 
Action= *check_orders* mit Session= 0

***********************************************************************
************************* dmconnector Shop *****************************
***********************************************************************
13.01.2015 - 16:42 Uhr

Uebergebene Daten:
  <GetDaten>
  </GetDaten>
  <PostDaten>
    <action>check_orders</action>
    <user>dmconnector</user>
    <password>dmc1211</password>
    <order_status>1</order_status>
  <PostDaten>

 ********************************** 
ExportModus :.
Get Soap Connection to http://www.happyfabric.de/index.php/api/soap/?wsdldmc_db_connect - Verbindung zu Datenbank db375433_9 mit Version 5.6.19-67.0-log
user authentification Access denied for dmconnector/dmc1211 Error=:
 SoapFault exception: [2] Zugriff verweigert. in /kunden/375433_12161/webseiten/happyfabric_08_2014/magento/dmcmag14/functions/dmc_use_soap.php:17
Stack trace:
#0 /kunden/375433_12161/webseiten/happyfabric_08_2014/magento/dmcmag14/functions/dmc_use_soap.php(17): SoapClient->__call('login', Array)
#1 /kunden/375433_12161/webseiten/happyfabric_08_2014/magento/dmcmag14/functions/dmc_use_soap.php(17): SoapClient->login('dmconnector', 'dmc1211')
#2 /kunden/375433_12161/webseiten/happyfabric_08_2014/magento/dmcmag14/dmconnector_magento.php(134): include('/kunden/375433_...')
#3 {main} 
Action= *check_orders* mit Session= 0

***********************************************************************
************************* dmconnector Shop *****************************
***********************************************************************
19.01.2015 - 14:40 Uhr

Uebergebene Daten:
  <GetDaten>
  </GetDaten>
  <PostDaten>
    <action>check_orders</action>
    <user>dmconnector</user>
    <password>dmc1211</password>
    <order_status>1</order_status>
  <PostDaten>

 ********************************** 
ExportModus :.
Get Soap Connection to http://www.happyfabric.de/index.php/api/soap/?wsdldmc_db_connect - Verbindung zu Datenbank db375433_9 mit Version 5.6.19-67.0-log
user authentification Access denied for dmconnector/dmc1211 Error=:
 SoapFault exception: [2] Zugriff verweigert. in /kunden/375433_12161/webseiten/happyfabric_08_2014/magento/dmcmag14/functions/dmc_use_soap.php:17
Stack trace:
#0 /kunden/375433_12161/webseiten/happyfabric_08_2014/magento/dmcmag14/functions/dmc_use_soap.php(17): SoapClient->__call('login', Array)
#1 /kunden/375433_12161/webseiten/happyfabric_08_2014/magento/dmcmag14/functions/dmc_use_soap.php(17): SoapClient->login('dmconnector', 'dmc1211')
#2 /kunden/375433_12161/webseiten/happyfabric_08_2014/magento/dmcmag14/dmconnector_magento.php(134): include('/kunden/375433_...')
#3 {main} 
Action= *check_orders* mit Session= 0

***********************************************************************
************************* dmconnector Shop *****************************
***********************************************************************
19.01.2015 - 14:41 Uhr

Uebergebene Daten:
  <GetDaten>
  </GetDaten>
  <PostDaten>
    <action>check_orders</action>
    <user>dmconnector</user>
    <password>dmc1211</password>
    <order_status>1</order_status>
  <PostDaten>

 ********************************** 
ExportModus :.
Get Soap Connection to http://www.happyfabric.de/index.php/api/soap/?wsdldmc_db_connect - Verbindung zu Datenbank db375433_9 mit Version 5.6.19-67.0-log
user authentification Access denied for dmconnector/dmc1211 Error=:
 SoapFault exception: [2] Zugriff verweigert. in /kunden/375433_12161/webseiten/happyfabric_08_2014/magento/dmcmag14/functions/dmc_use_soap.php:17
Stack trace:
#0 /kunden/375433_12161/webseiten/happyfabric_08_2014/magento/dmcmag14/functions/dmc_use_soap.php(17): SoapClient->__call('login', Array)
#1 /kunden/375433_12161/webseiten/happyfabric_08_2014/magento/dmcmag14/functions/dmc_use_soap.php(17): SoapClient->login('dmconnector', 'dmc1211')
#2 /kunden/375433_12161/webseiten/happyfabric_08_2014/magento/dmcmag14/dmconnector_magento.php(134): include('/kunden/375433_...')
#3 {main} 
Action= *check_orders* mit Session= 0

***********************************************************************
************************* dmconnector Shop *****************************
***********************************************************************
19.01.2015 - 14:42 Uhr

Uebergebene Daten:
  <GetDaten>
  </GetDaten>
  <PostDaten>
    <action>check_orders</action>
    <user>dmconnector</user>
    <password>dmc1211</password>
    <order_status>1</order_status>
  <PostDaten>

 ********************************** 
ExportModus :.
Get Soap Connection to http://www.happyfabric.de/index.php/api/soap/?wsdldmc_db_connect - Verbindung zu Datenbank db375433_9 mit Version 5.6.19-67.0-log
user authentification Access denied for dmconnector/dmc1211 Error=:
 SoapFault exception: [2] Zugriff verweigert. in /kunden/375433_12161/webseiten/happyfabric_08_2014/magento/dmcmag14/functions/dmc_use_soap.php:17
Stack trace:
#0 /kunden/375433_12161/webseiten/happyfabric_08_2014/magento/dmcmag14/functions/dmc_use_soap.php(17): SoapClient->__call('login', Array)
#1 /kunden/375433_12161/webseiten/happyfabric_08_2014/magento/dmcmag14/functions/dmc_use_soap.php(17): SoapClient->login('dmconnector', 'dmc1211')
#2 /kunden/375433_12161/webseiten/happyfabric_08_2014/magento/dmcmag14/dmconnector_magento.php(134): include('/kunden/375433_...')
#3 {main} 
Action= *check_orders* mit Session= 0

***********************************************************************
************************* dmconnector Shop *****************************
***********************************************************************
19.01.2015 - 14:43 Uhr

Uebergebene Daten:
  <GetDaten>
  </GetDaten>
  <PostDaten>
    <action>check_orders</action>
    <user>dmconnector</user>
    <password>dmc1211</password>
    <order_status>1</order_status>
  <PostDaten>

 ********************************** 
ExportModus :.
Get Soap Connection to http://www.happyfabric.de/index.php/api/soap/?wsdldmc_db_connect - Verbindung zu Datenbank db375433_9 mit Version 5.6.19-67.0-log
user authentification Access denied for dmconnector/dmc1211 Error=:
 SoapFault exception: [2] Zugriff verweigert. in /kunden/375433_12161/webseiten/happyfabric_08_2014/magento/dmcmag14/functions/dmc_use_soap.php:17
Stack trace:
#0 /kunden/375433_12161/webseiten/happyfabric_08_2014/magento/dmcmag14/functions/dmc_use_soap.php(17): SoapClient->__call('login', Array)
#1 /kunden/375433_12161/webseiten/happyfabric_08_2014/magento/dmcmag14/functions/dmc_use_soap.php(17): SoapClient->login('dmconnector', 'dmc1211')
#2 /kunden/375433_12161/webseiten/happyfabric_08_2014/magento/dmcmag14/dmconnector_magento.php(134): include('/kunden/375433_...')
#3 {main} 
Action= *check_orders* mit Session= 0

***********************************************************************
************************* dmconnector Shop *****************************
***********************************************************************
20.01.2015 - 11:07 Uhr

Uebergebene Daten:
  <GetDaten>
  </GetDaten>
  <PostDaten>
    <action>Status</action>
    <user>dmconnector</user>
    <password>dmc1211</password>
    <Status>__end</Status>
  <PostDaten>

 ********************************** 
ExportModus :.
Get Soap Connection to http://www.happyfabric.de/index.php/api/soap/?wsdldmc_db_connect - Verbindung zu Datenbank db375433_9 mit Version 5.6.19-67.0-log
user authentification Access denied for dmconnector/dmc1211 Error=:
 SoapFault exception: [2] Zugriff verweigert. in /kunden/375433_12161/webseiten/happyfabric_08_2014/magento/dmcmag14/functions/dmc_use_soap.php:17
Stack trace:
#0 /kunden/375433_12161/webseiten/happyfabric_08_2014/magento/dmcmag14/functions/dmc_use_soap.php(17): SoapClient->__call('login', Array)
#1 /kunden/375433_12161/webseiten/happyfabric_08_2014/magento/dmcmag14/functions/dmc_use_soap.php(17): SoapClient->login('dmconnector', 'dmc1211')
#2 /kunden/375433_12161/webseiten/happyfabric_08_2014/magento/dmcmag14/dmconnector_magento.php(134): include('/kunden/375433_...')
#3 {main} 
Action= *Status* mit Session= 0

***********************************************************************
************************* dmconnector Shop *****************************
***********************************************************************
20.01.2015 - 11:07 Uhr

Uebergebene Daten:
  <GetDaten>
  </GetDaten>
  <PostDaten>
    <action>Status</action>
    <user>dmconnector</user>
    <password>dmc1211</password>
    <Status>__details_end</Status>
  <PostDaten>

 ********************************** 
ExportModus :.
Get Soap Connection to http://www.happyfabric.de/index.php/api/soap/?wsdldmc_db_connect - Verbindung zu Datenbank db375433_9 mit Version 5.6.19-67.0-log
user authentification Access denied for dmconnector/dmc1211 Error=:
 SoapFault exception: [2] Zugriff verweigert. in /kunden/375433_12161/webseiten/happyfabric_08_2014/magento/dmcmag14/functions/dmc_use_soap.php:17
Stack trace:
#0 /kunden/375433_12161/webseiten/happyfabric_08_2014/magento/dmcmag14/functions/dmc_use_soap.php(17): SoapClient->__call('login', Array)
#1 /kunden/375433_12161/webseiten/happyfabric_08_2014/magento/dmcmag14/functions/dmc_use_soap.php(17): SoapClient->login('dmconnector', 'dmc1211')
#2 /kunden/375433_12161/webseiten/happyfabric_08_2014/magento/dmcmag14/dmconnector_magento.php(134): include('/kunden/375433_...')
#3 {main} 
Action= *Status* mit Session= 0

***********************************************************************
************************* dmconnector Shop *****************************
***********************************************************************
20.01.2015 - 11:32 Uhr

Uebergebene Daten:
  <GetDaten>
  </GetDaten>
  <PostDaten>
    <action>check_orders</action>
    <user>dmconnector</user>
    <password>dmc1211</password>
    <order_status>1</order_status>
  <PostDaten>

 ********************************** 
ExportModus :.
Get Soap Connection to http://www.happyfabric.de/index.php/api/soap/?wsdldmc_db_connect - Verbindung zu Datenbank db375433_9 mit Version 5.6.19-67.0-log
user authentification Access denied for dmconnector/dmc1211 Error=:
 SoapFault exception: [2] Zugriff verweigert. in /kunden/375433_12161/webseiten/happyfabric_08_2014/magento/dmcmag14/functions/dmc_use_soap.php:17
Stack trace:
#0 /kunden/375433_12161/webseiten/happyfabric_08_2014/magento/dmcmag14/functions/dmc_use_soap.php(17): SoapClient->__call('login', Array)
#1 /kunden/375433_12161/webseiten/happyfabric_08_2014/magento/dmcmag14/functions/dmc_use_soap.php(17): SoapClient->login('dmconnector', 'dmc1211')
#2 /kunden/375433_12161/webseiten/happyfabric_08_2014/magento/dmcmag14/dmconnector_magento.php(134): include('/kunden/375433_...')
#3 {main} 
Action= *check_orders* mit Session= 0

***********************************************************************
************************* dmconnector Shop *****************************
***********************************************************************
20.01.2015 - 11:33 Uhr

Uebergebene Daten:
  <GetDaten>
  </GetDaten>
  <PostDaten>
    <action>check_orders</action>
    <user>dmconnector</user>
    <password>dmc1211</password>
    <order_status>1</order_status>
  <PostDaten>

 ********************************** 
ExportModus :.
Get Soap Connection to http://www.happyfabric.de/index.php/api/soap/?wsdldmc_db_connect - Verbindung zu Datenbank db375433_9 mit Version 5.6.19-67.0-log
user authentification Access denied for dmconnector/dmc1211 Error=:
 SoapFault exception: [2] Zugriff verweigert. in /kunden/375433_12161/webseiten/happyfabric_08_2014/magento/dmcmag14/functions/dmc_use_soap.php:17
Stack trace:
#0 /kunden/375433_12161/webseiten/happyfabric_08_2014/magento/dmcmag14/functions/dmc_use_soap.php(17): SoapClient->__call('login', Array)
#1 /kunden/375433_12161/webseiten/happyfabric_08_2014/magento/dmcmag14/functions/dmc_use_soap.php(17): SoapClient->login('dmconnector', 'dmc1211')
#2 /kunden/375433_12161/webseiten/happyfabric_08_2014/magento/dmcmag14/dmconnector_magento.php(134): include('/kunden/375433_...')
#3 {main} 
Action= *check_orders* mit Session= 0

***********************************************************************
************************* dmconnector Shop *****************************
***********************************************************************
20.01.2015 - 11:34 Uhr

Uebergebene Daten:
  <GetDaten>
  </GetDaten>
  <PostDaten>
    <action>check_orders</action>
    <user>dmconnector</user>
    <password>dmc1211</password>
    <order_status>1</order_status>
  <PostDaten>

 ********************************** 
ExportModus :.
Get Soap Connection to http://www.happyfabric.de/index.php/api/soap/?wsdldmc_db_connect - Verbindung zu Datenbank db375433_9 mit Version 5.6.19-67.0-log
user authentification Access denied for dmconnector/dmc1211 Error=:
 SoapFault exception: [2] Zugriff verweigert. in /kunden/375433_12161/webseiten/happyfabric_08_2014/magento/dmcmag14/functions/dmc_use_soap.php:17
Stack trace:
#0 /kunden/375433_12161/webseiten/happyfabric_08_2014/magento/dmcmag14/functions/dmc_use_soap.php(17): SoapClient->__call('login', Array)
#1 /kunden/375433_12161/webseiten/happyfabric_08_2014/magento/dmcmag14/functions/dmc_use_soap.php(17): SoapClient->login('dmconnector', 'dmc1211')
#2 /kunden/375433_12161/webseiten/happyfabric_08_2014/magento/dmcmag14/dmconnector_magento.php(134): include('/kunden/375433_...')
#3 {main} 
Action= *check_orders* mit Session= 0

***********************************************************************
************************* dmconnector Shop *****************************
***********************************************************************
20.01.2015 - 11:35 Uhr

Uebergebene Daten:
  <GetDaten>
  </GetDaten>
  <PostDaten>
    <action>check_orders</action>
    <user>dmconnector</user>
    <password>dmc1211</password>
    <order_status>1</order_status>
  <PostDaten>

 ********************************** 
ExportModus :.
Get Soap Connection to http://www.happyfabric.de/index.php/api/soap/?wsdldmc_db_connect - Verbindung zu Datenbank db375433_9 mit Version 5.6.19-67.0-log
user authentification Access denied for dmconnector/dmc1211 Error=:
 SoapFault exception: [2] Zugriff verweigert. in /kunden/375433_12161/webseiten/happyfabric_08_2014/magento/dmcmag14/functions/dmc_use_soap.php:17
Stack trace:
#0 /kunden/375433_12161/webseiten/happyfabric_08_2014/magento/dmcmag14/functions/dmc_use_soap.php(17): SoapClient->__call('login', Array)
#1 /kunden/375433_12161/webseiten/happyfabric_08_2014/magento/dmcmag14/functions/dmc_use_soap.php(17): SoapClient->login('dmconnector', 'dmc1211')
#2 /kunden/375433_12161/webseiten/happyfabric_08_2014/magento/dmcmag14/dmconnector_magento.php(134): include('/kunden/375433_...')
#3 {main} 
Action= *check_orders* mit Session= 0

***********************************************************************
************************* dmconnector Shop *****************************
***********************************************************************
20.01.2015 - 12:33 Uhr

Uebergebene Daten:
  <GetDaten>
  </GetDaten>
  <PostDaten>
    <action>check_status</action>
    <user>dillingen</user>
    <password>123456</password>
  <PostDaten>

 ********************************** 
ExportModus :.
Get Soap Connection to http://www.happyfabric.de/index.php/api/soap/?wsdlapi authentification, ->  get session token = 3641a8ab0fa9952d7a32cd27ee8bb755 
Action= *check_status* mit Session= 3641a8ab0fa9952d7a32cd27ee8bb755
Session 3641a8ab0fa9952d7a32cd27ee8bb755 closed.


***********************************************************************
************************* dmconnector Shop *****************************
***********************************************************************
20.01.2015 - 12:34 Uhr

Uebergebene Daten:
  <GetDaten>
  </GetDaten>
  <PostDaten>
    <action>check_orders</action>
    <user>dillingen</user>
    <password>123456</password>
    <order_status>1</order_status>
  <PostDaten>

 ********************************** 
ExportModus :.
Get Soap Connection to http://www.happyfabric.de/index.php/api/soap/?wsdlapi authentification, ->  get session token = 5d9af2f2d38502e79523160eef2ed2e2 
Action= *check_orders* mit Session= 5d9af2f2d38502e79523160eef2ed2e2
checkOrders aufrufen mit session=5d9af2f2d38502e79523160eef2ed2e2.
checkOrdersDB ... getOrdersSQLWhere dmc_db_connect - Verbindung zu Datenbank db375433_9 mit Version 5.6.19-67.0-log
(status='processing') AND created_at > '2012-04-27 00:00:00' 
 dmc_sql_select_value-SQL= 1 
 dmc_db_connect - Verbindung zu Datenbank db375433_9 mit Version 5.6.19-67.0-log
dmc_sql_select_value-SQL= 2 
 dmc_sql_select_value-SQL= SELECT count(*) AS wert FROM sales_flat_order WHERE (status='processing') AND created_at > '2012-04-27 00:00:00'  -> 12 .
Session 5d9af2f2d38502e79523160eef2ed2e2 closed.


***********************************************************************
************************* dmconnector Shop *****************************
***********************************************************************
20.01.2015 - 12:34 Uhr

Uebergebene Daten:
  <GetDaten>
  </GetDaten>
  <PostDaten>
    <action>check_orders</action>
    <user>dillingen</user>
    <password>123456</password>
    <order_status>1</order_status>
  <PostDaten>

 ********************************** 
ExportModus :.
Get Soap Connection to http://www.happyfabric.de/index.php/api/soap/?wsdlapi authentification, ->  get session token = 21a8905111f130d2cb4dd8987c256224 
Action= *check_orders* mit Session= 21a8905111f130d2cb4dd8987c256224
checkOrders aufrufen mit session=21a8905111f130d2cb4dd8987c256224.
checkOrdersDB ... getOrdersSQLWhere dmc_db_connect - Verbindung zu Datenbank db375433_9 mit Version 5.6.19-67.0-log
(status='processing') AND created_at > '2012-04-27 00:00:00' 
 dmc_sql_select_value-SQL= 1 
 dmc_db_connect - Verbindung zu Datenbank db375433_9 mit Version 5.6.19-67.0-log
dmc_sql_select_value-SQL= 2 
 dmc_sql_select_value-SQL= SELECT count(*) AS wert FROM sales_flat_order WHERE (status='processing') AND created_at > '2012-04-27 00:00:00'  -> 12 .
Session 21a8905111f130d2cb4dd8987c256224 closed.


***********************************************************************
************************* dmconnector Shop *****************************
***********************************************************************
20.01.2015 - 12:34 Uhr

Uebergebene Daten:
  <GetDaten>
  </GetDaten>
  <PostDaten>
    <action>Status</action>
    <user>dillingen</user>
    <password>123456</password>
    <Status>ErpDetails_end</Status>
  <PostDaten>

 ********************************** 
ExportModus :.
Get Soap Connection to http://www.happyfabric.de/index.php/api/soap/?wsdlapi authentification, ->  get session token = 334af0de37981a0f3330e3d0ae8d5e9b 
Action= *Status* mit Session= 334af0de37981a0f3330e3d0ae8d5e9b

******************dmc_status mit Status ErpDetails_end ******************
Session 334af0de37981a0f3330e3d0ae8d5e9b closed.


***********************************************************************
************************* dmconnector Shop *****************************
***********************************************************************
20.01.2015 - 12:34 Uhr

Uebergebene Daten:
  <GetDaten>
  </GetDaten>
  <PostDaten>
    <action>Status</action>
    <user>dillingen</user>
    <password>123456</password>
    <Status>ErpDetails_details_end</Status>
  <PostDaten>

 ********************************** 
ExportModus :.
Get Soap Connection to http://www.happyfabric.de/index.php/api/soap/?wsdlapi authentification, ->  get session token = 40e8830cd3db3e0939449ee80d89b331 
Action= *Status* mit Session= 40e8830cd3db3e0939449ee80d89b331

******************dmc_status mit Status ErpDetails_details_end ******************
Session 40e8830cd3db3e0939449ee80d89b331 closed.


***********************************************************************
************************* dmconnector Shop *****************************
***********************************************************************
20.01.2015 - 12:35 Uhr

Uebergebene Daten:
  <GetDaten>
  </GetDaten>
  <PostDaten>
    <action>check_orders</action>
    <user>dillingen</user>
    <password>123456</password>
    <order_status>1</order_status>
  <PostDaten>

 ********************************** 
ExportModus :.
Get Soap Connection to http://www.happyfabric.de/index.php/api/soap/?wsdlapi authentification, ->  get session token = 6eb0eda0cba7af43da9111eace3388d5 
Action= *check_orders* mit Session= 6eb0eda0cba7af43da9111eace3388d5
checkOrders aufrufen mit session=6eb0eda0cba7af43da9111eace3388d5.
checkOrdersDB ... getOrdersSQLWhere dmc_db_connect - Verbindung zu Datenbank db375433_9 mit Version 5.6.19-67.0-log
(status='processing') AND created_at > '2012-04-27 00:00:00' 
 dmc_sql_select_value-SQL= 1 
 dmc_db_connect - Verbindung zu Datenbank db375433_9 mit Version 5.6.19-67.0-log
dmc_sql_select_value-SQL= 2 
 dmc_sql_select_value-SQL= SELECT count(*) AS wert FROM sales_flat_order WHERE (status='processing') AND created_at > '2012-04-27 00:00:00'  -> 12 .
Session 6eb0eda0cba7af43da9111eace3388d5 closed.


***********************************************************************
************************* dmconnector Shop *****************************
***********************************************************************
20.01.2015 - 12:35 Uhr

Uebergebene Daten:
  <GetDaten>
  </GetDaten>
  <PostDaten>
    <action>check_orders</action>
    <user>dillingen</user>
    <password>123456</password>
    <order_status>1</order_status>
  <PostDaten>

 ********************************** 
ExportModus :.
Get Soap Connection to http://www.happyfabric.de/index.php/api/soap/?wsdlapi authentification, ->  get session token = eba0a7c4bddd4377867689ee8d4bcc03 
Action= *check_orders* mit Session= eba0a7c4bddd4377867689ee8d4bcc03
checkOrders aufrufen mit session=eba0a7c4bddd4377867689ee8d4bcc03.
checkOrdersDB ... getOrdersSQLWhere dmc_db_connect - Verbindung zu Datenbank db375433_9 mit Version 5.6.19-67.0-log
(status='processing') AND created_at > '2012-04-27 00:00:00' 
 dmc_sql_select_value-SQL= 1 
 dmc_db_connect - Verbindung zu Datenbank db375433_9 mit Version 5.6.19-67.0-log
dmc_sql_select_value-SQL= 2 
 dmc_sql_select_value-SQL= SELECT count(*) AS wert FROM sales_flat_order WHERE (status='processing') AND created_at > '2012-04-27 00:00:00'  -> 12 .

***********************************************************************
************************* dmconnector Shop *****************************
***********************************************************************
20.01.2015 - 12:36 Uhr

Uebergebene Daten:
  <GetDaten>
  </GetDaten>
  <PostDaten>
    <action>check_orders</action>
    <user>dillingen</user>
    <password>123456</password>
    <order_status>1</order_status>
  <PostDaten>

 ********************************** 
ExportModus :.
Get Soap Connection to http://www.happyfabric.de/index.php/api/soap/?wsdlapi authentification, ->  get session token = 0e80f05f9a88e8ca87daa6bfc3493a10 
Action= *check_orders* mit Session= 0e80f05f9a88e8ca87daa6bfc3493a10
checkOrders aufrufen mit session=0e80f05f9a88e8ca87daa6bfc3493a10.
checkOrdersDB ... getOrdersSQLWhere dmc_db_connect - Verbindung zu Datenbank db375433_9 mit Version 5.6.19-67.0-log
(status='processing') AND created_at > '2012-04-27 00:00:00' 
 dmc_sql_select_value-SQL= 1 
 dmc_db_connect - Verbindung zu Datenbank db375433_9 mit Version 5.6.19-67.0-log
dmc_sql_select_value-SQL= 2 
 dmc_sql_select_value-SQL= SELECT count(*) AS wert FROM sales_flat_order WHERE (status='processing') AND created_at > '2012-04-27 00:00:00'  -> 0 .
